{
  "Meetings" : {
    
  },
  "Users" : {
    "84DFC119-D29B-44AE-B8E8-257DE184279A" : {
      "country" : "MX",
      "deviceToken" : {
        "413112341b1341413b14134" : true
      },
      "email" : "fachinacg@gmail.com",
      "meeting" : [ ],
      "name" : "Estefania Guardado",
      "photo" : "14241341.png",
      "timeZone" : -6,
      "validate" : true
    }
  }
}
